; Engine configuration file.
; It's best edited using the editor UI and not directly,
; since the parameters that go here are not all obvious.
;
; Format:
;   [section] ; section goes between []
;   param=value ; assign values to parameters

config_version=4

[application]

config/name="dino s3"
run/main_scene="res://Main.tscn"
config/icon="res://icon.png"

[autoload]

Global="*res://global.gd"

[display]

window/size/height=429
window/vsync/use_vsync=false
window/stretch/mode="viewport"
window/stretch/aspect="keep"

[gui]

common/drop_mouse_on_gui_input_disabled=true

[input]

jump={
"deadzone": 0.5,
"events": [ Object(InputEventKey,"resource_local_to_scene":false,"resource_name":"","device":0,"alt":false,"shift":false,"control":false,"meta":false,"command":false,"pressed":false,"scancode":0,"physical_scancode":32,"unicode":0,"echo":false,"script":null)
 ]
}

[physics]

common/enable_pause_aware_picking=true

[rendering]

quality/driver/driver_name="GLES2"
vram_compression/import_etc=true
vram_compression/import_etc2=false
environment/default_clear_color=Color( 0.0705882, 0.0705882, 0.0705882, 1 )
environment/default_environment="res://default_env.tres"
