[gd_resource type="Environment" load_steps=2 format=2]

[sub_resource type="ProceduralSky" id=1]

[resource]
background_mode = 2
background_sky = SubResource( 1 )
glow_intensity = 0.95
glow_strength = 0.76
glow_bloom = 0.44
glow_hdr_threshold = 0.0
glow_hdr_luminance_cap = 18.59
