[gd_resource type="AudioBusLayout" load_steps=3 format=2]

[sub_resource type="AudioEffectReverb" id=1]
resource_name = "Reverb"
predelay_msec = 50.0
room_size = 0.24
spread = 0.38
hipass = 0.12

[sub_resource type="AudioEffectPanner" id=2]
resource_name = "Panner"

[resource]
bus/0/effect/0/effect = SubResource( 1 )
bus/0/effect/0/enabled = false
bus/0/effect/1/effect = SubResource( 2 )
bus/0/effect/1/enabled = true
