[gd_scene load_steps=2 format=2]

[ext_resource path="res://assets/SnakeBody.jpg" type="Texture" id=1]

[node name="BodyPart" type="Node2D"]

[node name="Sprite" type="Sprite" parent="."]
position = Vector2( 14, 14 )
texture = ExtResource( 1 )
