[gd_scene load_steps=4 format=2]

[ext_resource path="res://Elements/Boom_Sound.gd" type="Script" id=1]
[ext_resource path="res://Sprites/pixil-frame-0_2.png" type="Texture" id=2]
[ext_resource path="res://Sound/Boom_4.wav" type="AudioStream" id=3]

[node name="Boom_Sound" type="Node2D"]
script = ExtResource( 1 )

[node name="AudioStreamPlayer" type="AudioStreamPlayer" parent="."]
stream = ExtResource( 3 )
volume_db = -3.0
autoplay = true

[node name="Explosion" type="Sprite" parent="."]
modulate = Color( 1, 0.560784, 0, 1 )
scale = Vector2( 1.34, 1.44 )
texture = ExtResource( 2 )

[connection signal="finished" from="AudioStreamPlayer" to="." method="_on_AudioStreamPlayer_finished"]
