[gd_scene load_steps=4 format=2]

[ext_resource path="res://GridMaps/BrickMap.tres" type="MeshLibrary" id=1]
[ext_resource path="res://Objects/Door.tscn" type="PackedScene" id=2]
[ext_resource path="res://Objects/Finish.tscn" type="PackedScene" id=3]

[node name="Level01" type="Spatial"]

[node name="GridMap" type="GridMap" parent="."]
mesh_library = ExtResource( 1 )
data = {
"cells": PoolIntArray( 6, 0, 0, 65531, 0, 0, 6, 1, 0, 65531, 1, 0, 6, 2, 0, 65531, 2, 0, 6, 3, 0, 65531, 3, 0, 6, 4, 0, 65531, 4, 0, 0, 5, 0, 1, 5, 0, 2, 5, 0, 3, 5, 0, 4, 5, 0, 5, 5, 0, 6, 5, 0, 65531, 5, 0, 65532, 5, 0, 65533, 5, 0, 65534, 5, 0, 65535, 5, 0, 0, 65503, 0, 1, 65503, 0, 2, 65503, 0, 3, 65503, 0, 4, 65503, 0, 5, 65503, 0, 6, 65503, 0, 7, 65503, 0, 8, 65503, 0, 9, 65503, 0, 10, 65503, 0, 11, 65503, 0, 12, 65503, 0, 13, 65503, 0, 14, 65503, 0, 15, 65503, 0, 16, 65503, 0, 65531, 65503, 0, 65532, 65503, 0, 65533, 65503, 0, 65534, 65503, 0, 65535, 65503, 0, 1, 65504, 0, 5, 65504, 0, 9, 65504, 0, 65531, 65504, 0, 1, 65505, 0, 2, 65505, 0, 3, 65505, 0, 5, 65505, 0, 9, 65505, 0, 10, 65505, 0, 11, 65505, 0, 12, 65505, 0, 15, 65505, 0, 16, 65505, 0, 65531, 65505, 0, 3, 65506, 0, 7, 65506, 0, 15, 65506, 0, 65531, 65506, 0, 65532, 65506, 0, 65533, 65506, 0, 65535, 65506, 0, 0, 65507, 0, 1, 65507, 0, 3, 65507, 0, 5, 65507, 0, 6, 65507, 0, 7, 65507, 0, 8, 65507, 0, 9, 65507, 0, 10, 65507, 0, 12, 65507, 0, 13, 65507, 0, 14, 65507, 0, 15, 65507, 0, 65531, 65507, 0, 65533, 65507, 0, 65535, 65507, 0, 1, 65508, 0, 5, 65508, 0, 9, 65508, 0, 12, 65508, 0, 15, 65508, 0, 65531, 65508, 0, 65533, 65508, 0, 1, 65509, 0, 2, 65509, 0, 3, 65509, 0, 4, 65509, 0, 5, 65509, 0, 7, 65509, 0, 8, 65509, 0, 9, 65509, 0, 10, 65509, 0, 11, 65509, 0, 12, 65509, 0, 15, 65509, 0, 65531, 65509, 0, 65533, 65509, 0, 65534, 65509, 0, 65535, 65509, 0, 7, 65510, 0, 11, 65510, 0, 15, 65510, 0, 65531, 65510, 0, 65535, 65510, 0, 0, 65511, 0, 1, 65511, 0, 3, 65511, 0, 4, 65511, 0, 5, 65511, 0, 7, 65511, 0, 9, 65511, 0, 11, 65511, 0, 12, 65511, 0, 15, 65511, 0, 65531, 65511, 0, 65533, 65511, 0, 65534, 65511, 0, 65535, 65511, 0, 5, 65512, 0, 7, 65512, 0, 9, 65512, 0, 15, 65512, 0, 65531, 65512, 0, 65533, 65512, 0, 0, 65513, 0, 1, 65513, 0, 2, 65513, 0, 3, 65513, 0, 5, 65513, 0, 6, 65513, 0, 7, 65513, 0, 9, 65513, 0, 11, 65513, 0, 13, 65513, 0, 14, 65513, 0, 15, 65513, 0, 65531, 65513, 0, 65533, 65513, 0, 65535, 65513, 0, 1, 65514, 0, 3, 65514, 0, 9, 65514, 0, 11, 65514, 0, 13, 65514, 0, 15, 65514, 0, 65531, 65514, 0, 65533, 65514, 0, 1, 65515, 0, 3, 65515, 0, 4, 65515, 0, 5, 65515, 0, 7, 65515, 0, 8, 65515, 0, 9, 65515, 0, 11, 65515, 0, 13, 65515, 0, 15, 65515, 0, 65531, 65515, 0, 65533, 65515, 0, 65534, 65515, 0, 65535, 65515, 0, 11, 65516, 0, 13, 65516, 0, 15, 65516, 0, 65531, 65516, 0, 1, 65517, 0, 3, 65517, 0, 4, 65517, 0, 5, 65517, 0, 7, 65517, 0, 8, 65517, 0, 9, 65517, 0, 10, 65517, 0, 11, 65517, 0, 13, 65517, 0, 15, 65517, 0, 65531, 65517, 0, 65532, 65517, 0, 65533, 65517, 0, 65534, 65517, 0, 65535, 65517, 0, 1, 65518, 0, 3, 65518, 0, 5, 65518, 0, 7, 65518, 0, 15, 65518, 0, 65531, 65518, 0, 1, 65519, 0, 3, 65519, 0, 5, 65519, 0, 7, 65519, 0, 9, 65519, 0, 11, 65519, 0, 12, 65519, 0, 13, 65519, 0, 14, 65519, 0, 15, 65519, 0, 65531, 65519, 0, 65533, 65519, 0, 65534, 65519, 0, 65535, 65519, 0, 3, 65520, 0, 9, 65520, 0, 11, 65520, 0, 15, 65520, 0, 65531, 65520, 0, 65533, 65520, 0, 0, 65521, 0, 1, 65521, 0, 3, 65521, 0, 5, 65521, 0, 6, 65521, 0, 9, 65521, 0, 10, 65521, 0, 11, 65521, 0, 13, 65521, 0, 15, 65521, 0, 65531, 65521, 0, 65533, 65521, 0, 65534, 65521, 0, 65535, 65521, 0, 6, 65522, 0, 13, 65522, 0, 15, 65522, 0, 65531, 65522, 0, 0, 65523, 0, 1, 65523, 0, 3, 65523, 0, 4, 65523, 0, 5, 65523, 0, 6, 65523, 0, 7, 65523, 0, 8, 65523, 0, 9, 65523, 0, 10, 65523, 0, 11, 65523, 0, 12, 65523, 0, 13, 65523, 0, 14, 65523, 0, 15, 65523, 0, 65531, 65523, 0, 65532, 65523, 0, 65533, 65523, 0, 65534, 65523, 0, 65535, 65523, 0, 6, 65524, 0, 65531, 65524, 0, 6, 65525, 0, 65531, 65525, 0, 6, 65526, 0, 65531, 65526, 0, 6, 65527, 0, 65531, 65527, 0, 6, 65528, 0, 65531, 65528, 0, 6, 65529, 0, 65531, 65529, 0, 6, 65530, 0, 65531, 65530, 0, 6, 65531, 0, 65531, 65531, 0, 6, 65532, 0, 65531, 65532, 0, 6, 65533, 0, 65531, 65533, 0, 6, 65534, 0, 65531, 65534, 0, 6, 65535, 0, 65531, 65535, 0 )
}
__meta__ = {
"_editor_clip_": 0,
"_editor_floor_": Vector3( 0, 0, 0 )
}

[node name="Door" parent="." instance=ExtResource( 2 )]
transform = Transform( 1, 0, 0, 0, 1, 0, 0, 0, 1, 5, 0, -25 )

[node name="Finish" parent="." instance=ExtResource( 3 )]
transform = Transform( 1, 0, 0, 0, 1, 0, 0, 0, 1, 33.2657, 1.40853, -63.0054 )
