[gd_scene load_steps=6 format=2]

[ext_resource path="res://Tile.gd" type="Script" id=1]
[ext_resource path="res://square-button-clear-md.png" type="Texture" id=2]
[ext_resource path="res://bomb_PNG26.png" type="Texture" id=3]
[ext_resource path="res://w256h2561339252451BoxGrey.png" type="Texture" id=4]
[ext_resource path="res://Orange-Flag-PNG.png" type="Texture" id=5]

[node name="Tile" type="Node2D"]
script = ExtResource( 1 )

[node name="Back" type="Sprite" parent="."]
visible = false
scale = Vector2( 0.25, 0.25 )
texture = ExtResource( 4 )
centered = false

[node name="Bomb" type="Sprite" parent="."]
visible = false
position = Vector2( 17, 12 )
scale = Vector2( 0.02, 0.02 )
texture = ExtResource( 3 )
centered = false

[node name="Label" type="Label" parent="."]
margin_left = 4.0
margin_top = 4.0
margin_right = 61.0
margin_bottom = 60.0
custom_colors/font_color = Color( 0.360784, 0.505882, 1, 1 )
align = 1
valign = 1

[node name="Cover" type="Sprite" parent="."]
modulate = Color( 1, 1, 1, 0.533333 )
position = Vector2( 1, 2 )
scale = Vector2( 0.213333, 0.213333 )
texture = ExtResource( 2 )
centered = false

[node name="Flag" type="Sprite" parent="."]
visible = false
position = Vector2( 9, 12 )
scale = Vector2( 0.072, 0.06 )
texture = ExtResource( 5 )
centered = false

[node name="Control" type="Control" parent="."]
margin_top = 1.0
margin_right = 56.0
margin_bottom = 57.0

[connection signal="gui_input" from="Control" to="." method="_on_Control_gui_input"]
