[gd_scene load_steps=5 format=2]

[ext_resource path="res://Node2D.gd" type="Script" id=1]

[sub_resource type="Gradient" id=2]
offsets = PoolRealArray( 0, 0.587097, 0.987097, 1 )
colors = PoolColorArray( 0.839355, 0.0754108, 0.0754108, 1, 0.870588, 1, 0, 1, 0.980469, 0.666412, 0, 0.272727, 1, 1, 1, 0 )

[sub_resource type="GradientTexture" id=3]
gradient = SubResource( 2 )

[sub_resource type="ParticlesMaterial" id=1]
lifetime_randomness = 0.5
flag_disable_z = true
direction = Vector3( 0, -1, 0 )
spread = 180.0
gravity = Vector3( 0, 60, 0 )
initial_velocity = 129.31
initial_velocity_random = 0.11
angular_velocity = 2000.0
angular_velocity_random = 1.0
orbit_velocity = 0.3
orbit_velocity_random = 0.36
scale = 7.0
color_ramp = SubResource( 3 )
hue_variation_random = 1.0

[node name="Node2D" type="Node2D"]
script = ExtResource( 1 )

[node name="Particles2D" type="Particles2D" parent="."]
modulate = Color( 1, 0.984314, 0, 1 )
emitting = false
amount = 80
lifetime = 0.6
one_shot = true
explosiveness = 0.83
randomness = 0.78
process_material = SubResource( 1 )

[node name="Timer" type="Timer" parent="."]
wait_time = 1.2
one_shot = true
autostart = true

[connection signal="timeout" from="Timer" to="." method="_on_Timer_timeout"]
