[gd_scene load_steps=4 format=2]

[ext_resource path="res://sprites/pipe.png" type="Texture" id=1]

[sub_resource type="RectangleShape2D" id=1]
extents = Vector2( 37.5, 17.5 )

[sub_resource type="RectangleShape2D" id=2]
extents = Vector2( 35, 486 )

[node name="Wall" type="Area2D"]

[node name="NinePatchRect" type="NinePatchRect" parent="."]
margin_right = 80.0
margin_bottom = 1000.0
texture = ExtResource( 1 )
patch_margin_top = 82
patch_margin_bottom = 16

[node name="CollisionShape2D" type="CollisionShape2D" parent="."]
position = Vector2( 40.5, 20.5 )
shape = SubResource( 1 )

[node name="CollisionShape2D2" type="CollisionShape2D" parent="."]
position = Vector2( 40, 519 )
shape = SubResource( 2 )
