[gd_scene load_steps=3 format=2]

[ext_resource path="res://obstacles/cb0.tscn" type="PackedScene" id=1]

[sub_resource type="CapsuleShape2D" id=1]
radius = 6.0
height = 28.0

[node name="Obstacle" instance=ExtResource( 1 )]

[node name="Sprite" parent="." index="0"]
frame = 2

[node name="CollisionShape2D2" parent="." index="2"]
position = Vector2( -18, -66 )

[node name="CollisionShape2D3" parent="." index="3"]
position = Vector2( 17, -56 )
shape = SubResource( 1 )
