[gd_scene load_steps=4 format=2]

[ext_resource path="res://GameOverOverly.gd" type="Script" id=1]

[sub_resource type="DynamicFont" id=1]
size = 80
outline_size = 120

[sub_resource type="DynamicFont" id=2]

[node name="GameOverOverly" type="Control"]
margin_right = 35.0
margin_bottom = 35.0
script = ExtResource( 1 )

[node name="ColorRect" type="ColorRect" parent="."]
margin_right = 639.0
margin_bottom = 479.0
color = Color( 0.0313726, 0.00784314, 0.0862745, 0.470588 )

[node name="VBoxContainer" type="VBoxContainer" parent="."]
margin_right = 82.0
margin_bottom = 57.0

[node name="Label" type="Label" parent="VBoxContainer"]
margin_right = 82.0
margin_bottom = 1.0
custom_fonts/font = SubResource( 1 )
text = "Game Over"

[node name="ScoreLabel" type="Label" parent="VBoxContainer"]
margin_top = 5.0
margin_right = 82.0
margin_bottom = 6.0
custom_fonts/font = SubResource( 2 )
text = "Highscore:"

[node name="Button" type="Button" parent="VBoxContainer"]
margin_top = 10.0
margin_right = 82.0
margin_bottom = 30.0
text = "Restart"

[connection signal="pressed" from="VBoxContainer/Button" to="." method="_on_Button_pressed"]
