<?xml version="1.0" encoding="UTF-8" standalone="no"?>
<!-- Created with Inkscape (http://www.inkscape.org/) -->

<svg
   width="210mm"
   height="297mm"
   viewBox="0 0 210 297"
   version="1.1"
   id="svg919"
   inkscape:version="1.1.2 (0a00cf5339, 2022-02-04)"
   sodipodi:docname="pongSprites.svg"
   xmlns:inkscape="http://www.inkscape.org/namespaces/inkscape"
   xmlns:sodipodi="http://sodipodi.sourceforge.net/DTD/sodipodi-0.dtd"
   xmlns="http://www.w3.org/2000/svg"
   xmlns:svg="http://www.w3.org/2000/svg">
  <sodipodi:namedview
     id="namedview921"
     pagecolor="#505050"
     bordercolor="#eeeeee"
     borderopacity="1"
     inkscape:pageshadow="0"
     inkscape:pageopacity="0"
     inkscape:pagecheckerboard="0"
     inkscape:document-units="mm"
     showgrid="false"
     inkscape:zoom="5.1241863"
     inkscape:cx="276.43413"
     inkscape:cy="579.31149"
     inkscape:window-width="1920"
     inkscape:window-height="1054"
     inkscape:window-x="0"
     inkscape:window-y="0"
     inkscape:window-maximized="1"
     inkscape:current-layer="layer2" />
  <defs
     id="defs916" />
  <g
     inkscape:label="Layer 1"
     inkscape:groupmode="layer"
     id="layer1">
    <rect
       style="fill:#ffffff;fill-opacity:1;stroke:none;stroke-width:0.613499;stroke-linecap:round;stroke-linejoin:round;stroke-opacity:1;paint-order:stroke markers fill;stop-color:#000000"
       id="rect2030"
       width="4.2333331"
       height="16.933332"
       x="57.355175"
       y="137.34836"
       ry="2.1166666" />
    <ellipse
       style="fill:#ffffff;fill-opacity:1;stroke:none;stroke-width:1.55272;stroke-linecap:round;stroke-linejoin:round;stroke-opacity:1;paint-order:stroke markers fill;stop-color:#000000"
       id="path2142"
       cx="-44.301483"
       cy="154.5354"
       transform="rotate(-42.419893)"
       rx="2.1166668"
       ry="2.1166666" />
    <path
       style="color:#000000;fill:#ffffff;fill-rule:evenodd;stroke-width:0.999951;stroke-linecap:round;stroke-linejoin:round;stroke-dasharray:5.29141, 2.6457;-inkscape-stroke:none"
       d="m 89.036958,147.42474 a 0.66145998,0.66139486 0 0 0 -0.660156,0.66009 v 5.29245 a 0.66145998,0.66139486 0 0 0 0.660156,0.66205 0.66145998,0.66139486 0 0 0 0.662109,-0.66205 v -5.29245 a 0.66145998,0.66139486 0 0 0 -0.662109,-0.66009 z"
       id="path3154" />
    <path
       style="color:#000000;fill:#ffffff;fill-rule:evenodd;stroke-width:0.999951;stroke-linecap:round;stroke-linejoin:round;stroke-dasharray:5.29141, 2.6457;-inkscape-stroke:none"
       d="m 89.036769,138.9584 a 0.66145998,0.66139483 0 0 0 -0.660156,0.66009 v 5.29245 a 0.66145998,0.66139483 0 0 0 0.660156,0.66205 0.66145998,0.66139483 0 0 0 0.662109,-0.66205 v -5.29245 a 0.66145998,0.66139483 0 0 0 -0.662109,-0.66009 z"
       id="path2622" />
  </g>
  <g
     inkscape:groupmode="layer"
     id="layer2"
     inkscape:label="slices"
     style="display:none">
    <rect
       style="opacity:.25;fill:#00ff00;stroke:none;stroke-width:0.878157;stroke-linecap:round;stroke-linejoin:round;stroke-dasharray:3.51262, 1.75631;paint-order:stroke markers fill;stop-color:#000000"
       id="paddle"
       width="4.2333322"
       height="16.933338"
       x="57.355175"
       y="137.34836" />
    <rect
       style="opacity:.25;fill:#00ff00;stroke:none;stroke-width:1.22285;stroke-linecap:round;stroke-linejoin:round;stroke-dasharray:4.89138, 2.44569;paint-order:stroke markers fill;stop-color:#000000"
       id="ball"
       width="4.2333331"
       height="4.2333331"
       x="69.422241"
       y="141.84859" />
    <rect
       style="opacity:.25;fill:#00ff00;stroke:none;stroke-width:1.30467;stroke-linecap:round;stroke-linejoin:round;stroke-dasharray:5.21866, 2.60933;paint-order:stroke markers fill;stop-color:#000000"
       id="net"
       width="1.3229166"
       height="16.933332"
       x="88.376289"
       y="138.9584" />
  </g>
</svg>
