; Engine configuration file.
; It's best edited using the editor UI and not directly,
; since the parameters that go here are not all obvious.
;
; Format:
;   [section] ; section goes between []
;   param=value ; assign values to parameters

config_version=4

[application]

config/name="GDUA match3 Start 0"
run/main_scene="res://Main.tscn"
config/icon="res://icon.png"

[display]

window/size/width=600
window/size/height=1024
window/handheld/orientation="portrait"
window/stretch/mode="viewport"

[gui]

common/drop_mouse_on_gui_input_disabled=true

[input_devices]

pointing/emulate_touch_from_mouse=true

[physics]

common/enable_pause_aware_picking=true

[rendering]

quality/driver/driver_name="GLES2"
vram_compression/import_etc=true
vram_compression/import_etc2=false
environment/default_environment="res://default_env.tres"
