[gd_resource type="Environment" load_steps=2 format=2]

[sub_resource type="ProceduralSky" id=1]

[resource]
background_mode = 3
background_sky = SubResource( 1 )
background_color = Color( 0.501961, 0.6, 0.701961, 1 )
fog_enabled = true
fog_color = Color( 0.501961, 0.6, 0.701961, 1 )
fog_depth_begin = 0.0
fog_depth_end = 30.0
fog_height_min = 3.0
fog_height_max = -10.0
