[gd_scene load_steps=5 format=2]

[ext_resource path="res://effects/FireExplosion.gd" type="Script" id=1]
[ext_resource path="res://sprites/balls.png" type="Texture" id=2]

[sub_resource type="Animation" id=1]
length = 0.001
tracks/0/type = "value"
tracks/0/path = NodePath("Sprite:frame")
tracks/0/interp = 1
tracks/0/loop_wrap = true
tracks/0/imported = false
tracks/0/enabled = true
tracks/0/keys = {
"times": PoolRealArray( 0 ),
"transitions": PoolRealArray( 1 ),
"update": 0,
"values": [ 0 ]
}
tracks/1/type = "value"
tracks/1/path = NodePath("Sprite:visible")
tracks/1/interp = 1
tracks/1/loop_wrap = true
tracks/1/imported = false
tracks/1/enabled = true
tracks/1/keys = {
"times": PoolRealArray( 0 ),
"transitions": PoolRealArray( 1 ),
"update": 0,
"values": [ true ]
}

[sub_resource type="Animation" id=2]
resource_name = "explosion"
tracks/0/type = "value"
tracks/0/path = NodePath("Sprite:frame")
tracks/0/interp = 1
tracks/0/loop_wrap = true
tracks/0/imported = false
tracks/0/enabled = true
tracks/0/keys = {
"times": PoolRealArray( 0, 0.1, 0.2, 0.3 ),
"transitions": PoolRealArray( 1, 1, 1, 1 ),
"update": 1,
"values": [ 0, 1, 2, 3 ]
}
tracks/1/type = "value"
tracks/1/path = NodePath("Sprite:visible")
tracks/1/interp = 1
tracks/1/loop_wrap = true
tracks/1/imported = false
tracks/1/enabled = true
tracks/1/keys = {
"times": PoolRealArray( 0.3, 0.4 ),
"transitions": PoolRealArray( 1, 1 ),
"update": 1,
"values": [ true, false ]
}

[node name="FireExp" type="KinematicBody2D"]
script = ExtResource( 1 )

[node name="Sprite" type="Sprite" parent="."]
texture = ExtResource( 2 )
hframes = 4
vframes = 3
__meta__ = {
"_edit_lock_": true
}

[node name="Timer" type="Timer" parent="."]
one_shot = true
autostart = true

[node name="AnimationPlayer" type="AnimationPlayer" parent="."]
autoplay = "explosion"
anims/RESET = SubResource( 1 )
anims/explosion = SubResource( 2 )

[connection signal="timeout" from="Timer" to="." method="_on_Timer_timeout"]
