[gd_scene load_steps=4 format=2]

[ext_resource path="res://Pieces/Piece.gd" type="Script" id=1]
[ext_resource path="res://sprites/pysanky.png" type="Texture" id=2]
[ext_resource path="res://sprites/halo.png" type="Texture" id=3]

[node name="Piece" type="Node2D"]
script = ExtResource( 1 )

[node name="Sprite" type="Sprite" parent="."]
texture = ExtResource( 2 )
hframes = 3
vframes = 2

[node name="Tween" type="Tween" parent="."]

[node name="Halo" type="Sprite" parent="."]
texture = ExtResource( 3 )
