[gd_scene load_steps=3 format=2]

[ext_resource path="res://src/Piece.tscn" type="PackedScene" id=1]
[ext_resource path="res://2048.png" type="Texture" id=2]

[node name="2048Piece" instance=ExtResource( 1 )]
value = 2048

[node name="Sprite" parent="." index="0"]
texture = ExtResource( 2 )
