[gd_scene load_steps=5 format=2]

[ext_resource path="res://Objects/Finish.gd" type="Script" id=1]

[sub_resource type="SphereShape" id=1]
radius = 0.5

[sub_resource type="SphereMesh" id=2]

[sub_resource type="SpatialMaterial" id=3]
emission_enabled = true
emission = Color( 0.243137, 1, 0, 1 )
emission_energy = 1.0
emission_operator = 0
emission_on_uv2 = false

[node name="Finish" type="Area"]
script = ExtResource( 1 )

[node name="CollisionShape" type="CollisionShape" parent="."]
shape = SubResource( 1 )

[node name="MeshInstance" type="MeshInstance" parent="."]
transform = Transform( 0.464861, 0, 0, 0, 0.464861, 0, 0, 0, 0.464861, 0, 0, 0 )
mesh = SubResource( 2 )
material/0 = SubResource( 3 )

[connection signal="body_entered" from="." to="." method="_on_Finish_body_entered"]
